[
    [
        [
            "7",
            "E",
            "9",
            "F"
        ],
        [
            "1",
            "G",
            "12",
            "L"
        ],
        [
            "2",
            "N",
            "4",
            "C"
        ],
        [
            "10",
            "J",
            "14",
            "A"
        ],
        [
            "6",
            "I",
            "13",
            "D"
        ]
    ],
    [
        [
            "2",
            "B",
            "6",
            "M"
        ],
        [
            "5",
            "C",
            "7",
            "N"
        ],
        [
            "3",
            "H",
            "4",
            "J"
        ],
        [
            "10",
            "K",
            "12",
            "D"
        ],
        [
            "8",
            "A",
            "11",
            "F"
        ]
    ],
    [
        [
            "4",
            "L",
            "8",
            "I"
        ],
        [
            "11",
            "N",
            "12",
            "G"
        ],
        [
            "9",
            "J",
            "10",
            "F"
        ],
        [
            "1",
            "C",
            "13",
            "H"
        ],
        [
            "2",
            "E",
            "14",
            "D"
        ]
    ],
    [
        [
            "6",
            "B",
            "7",
            "L"
        ],
        [
            "1",
            "E",
            "11",
            "M"
        ],
        [
            "4",
            "N",
            "10",
            "H"
        ],
        [
            "5",
            "K",
            "8",
            "D"
        ],
        [
            "9",
            "I",
            "12",
            "J"
        ]
    ],
    [
        [
            "7",
            "K",
            "13",
            "A"
        ],
        [
            "3",
            "F",
            "4",
            "B"
        ],
        [
            "1",
            "I",
            "11",
            "L"
        ],
        [
            "6",
            "G",
            "8",
            "M"
        ],
        [
            "5",
            "D",
            "12",
            "C"
        ]
    ],
    [
        [
            "9",
            "E",
            "11",
            "G"
        ],
        [
            "2",
            "M",
            "10",
            "I"
        ],
        [
            "5",
            "J",
            "6",
            "N"
        ],
        [
            "1",
            "F",
            "13",
            "K"
        ],
        [
            "8",
            "H",
            "14",
            "C"
        ]
    ],
    [
        [
            "4",
            "H",
            "13",
            "L"
        ],
        [
            "7",
            "D",
            "8",
            "C"
        ],
        [
            "1",
            "J",
            "11",
            "B"
        ],
        [
            "12",
            "M",
            "14",
            "E"
        ],
        [
            "3",
            "G",
            "6",
            "A"
        ]
    ],
    [
        [
            "2",
            "G",
            "10",
            "N"
        ],
        [
            "6",
            "H",
            "14",
            "F"
        ],
        [
            "5",
            "I",
            "7",
            "M"
        ],
        [
            "3",
            "L",
            "9",
            "K"
        ],
        [
            "4",
            "A",
            "8",
            "B"
        ]
    ],
    [
        [
            "3",
            "D",
            "11",
            "J"
        ],
        [
            "2",
            "A",
            "5",
            "N"
        ],
        [
            "7",
            "C",
            "9",
            "B"
        ],
        [
            "1",
            "H",
            "12",
            "E"
        ],
        [
            "4",
            "F",
            "14",
            "K"
        ]
    ],
    [
        [
            "11",
            "B",
            "12",
            "F"
        ],
        [
            "1",
            "G",
            "6",
            "K"
        ],
        [
            "7",
            "A",
            "9",
            "E"
        ],
        [
            "13",
            "N",
            "14",
            "I"
        ],
        [
            "3",
            "M",
            "10",
            "L"
        ]
    ]
]